@startuml
!include ../node_modules/plantuml-c4/C4_Context.puml

title System Context

LAYOUT_TOP_DOWN()
'LAYOUT_AS_SKETCH()
'LAYOUT_WITH_LEGEND()

skinparam HyperLinkColor #white

System_Ext("ext_3rd_parties", "3rd parties Systems", "Systems of our partners. Provides transaction and reconciliation data")
System("core", "Core System", "Set of infrastructure elements to collect, process and store transaction and reconciliation data")
System("microservices", "Microservices System", "Internal microservices to get merchant and fee data")
System("ds_system", "Data Science System", "Set of infrastructure elements to analyse collected data in real-time")
Person_Ext(merchant, "Merchant")

Rel_D(ext_3rd_parties, core, "Posts data", "HTTPS")
Rel_U(core, ext_3rd_parties, "Requests data", "SFTP, HTTPS")
Rel_U(ds_system, core, "Requests data", "mysql, message bus")
Rel_R(merchant, core, "Requests invoices", "HTTPS")
Rel_R(core, microservices, "Requests data", "HTTPS")

@enduml
