@startuml

!include ../node_modules/plantuml-c4/C4_Component.puml

UpdateElementStyle(core_message_bus, $fontColor="green")

!define DEVICONS ../node_modules/plantuml-icons/devicons

!include DEVICONS/mysql.puml

title Component diagram for Database Container

skinparam HyperLinkColor #white

Boundary(ext_3rd_parties, "Database Container") {
    Component(db_sql_proxy, "SQL Proxy", "mysql", "This component allows to solve problem of connection limit, for Read/Write Split and for failover master/slaves.")
    ComponentDb(db_master, "Master", "mysql", "", "mysql")
    ComponentDb(db_slave_sync, "Slave Sync", "mysql", "", "mysql")
    ComponentDb(db_slave_async, "Slave Async", "mysql", "for Data Science team", "mysql")

    Rel_D(db_sql_proxy, db_master, "Writes")
    Rel_D(db_sql_proxy, db_slave_sync, "Reads")
    Rel(db_master, db_slave_sync, "Replicates")
    Rel(db_master, db_slave_async, "Replicates")
}

@enduml
